digraph TopLevel {
    fontsize = 8
    label = "TopLevel"
    compound = true
    fontname = Arial
    bgcolor = lightcyan1
    node [
        fontsize = 8,
        color = black,
        fontname = Arial
    ]

}

