digraph TopLevel {
    fontsize = 8
    label = "TopLevel"
    compound = true
    fontname = Arial
    bgcolor = lightcyan1
    node [
        fontsize = 8,
        color = black,
        fontname = Arial
    ]

    subgraph cluster_WEBrick {
        style = filled
        label = "WEBrick"
        URL = "classes/WEBrick.html"
        color = blue
        fontname = Arial
        fillcolor = palegreen1
        WEBrick [
            width = 0.01,
            height = 0.01,
            shape = plaintext,
            label = ""
        ]

        subgraph cluster_WEBrick__Config {
            style = filled
            label = "Config"
            URL = "classes/WEBrick/Config.html"
            color = blue
            fontname = Arial
            fillcolor = palegreen3
            WEBrick__Config [
                width = 0.75,
                height = 0.01,
                shape = plaintext,
                label = ""
            ]

        }

    }

}

